{
  "$schema": "https://themost-framework.github.io/themost/models/2018/2/schema.json",
  "@id": "https://universis.io/schemas/ConsentField",
  "name": "ConsentField",
  "title": "ConsentFields",
  "hidden": false,
  "sealed": false,
  "abstract": false,
  "implements": "Thing",
  "version": "1.0.0",
  "classPath": "@universis/consents#ConsentField",
  "fields": [
    {
      "@id": "https://themost.io/schemas/id",
      "name": "id",
      "description": "The identifier of the item.",
      "type": "Guid",
      "primary": true,
      "nullable": false,
      "value": "javascript:return require('uuid').v4();"
    },
    {
      "@id": "http://schema.org/name",
      "name": "name",
      "description": "The name of the item.",
      "type": "Text",
      "indexed": true,
      "nullable": false
    },
    {
      "@id": "http://schema.org/name",
      "name": "alternateName",
      "description": "An alternate name which is going to be used to identify the item.",
      "type": "Text",
      "nullable": false,
      "indexed": true,
      "size": 36,
      "validation": {
        "pattern": "^[a-zA-Z0-9_]+$",
        "patternMessage": "The value of 'alternateName' field must be a valid identifier with numbers."
      }
    },
    {
      "@id": "https://universis.io/schemas/archived",
      "name": "archived",
      "description": "Indicated whether this consent is archived and longer used or not",
      "type": "Boolean",
      "value": "javascript:return false;"
    },
    {
      "@id": "https://universis/schemas/value",
      "name": "value",
      "description": "A value which is going to be used as the default value for this consent field.",
      "type": "ConsentFieldValue",
      "mapping": {
          "associationType": "association",
          "parentModel": "ConsentFieldValue",
          "parentField": "alternateName",
          "childModel": "ConsentField",
          "childField": "value"
      }
    },
    {
      "@id": "https://universis.io/schemas/expiration",
      "name": "expiration",
      "description": "The duration of this consent field. After this duration, the consent field will be expired and should be validated again.",
      "type": "Duration",
      "value": "javascript:return 'P3M';"
    },
    {
      "@id": "https://universis.io/schemas/consentFieldGroup",
      "name": "group",
      "description": "Defined the consent field group which this consent field belongs to.",
      "type": "ConsentFieldGroup",
      "mapping": {
        "associationType": "association",
        "cascade": "delete",
        "parentModel": "ConsentFieldGroup",
        "parentField": "alternateName",
        "childModel": "ConsentField",
        "childField": "group"
      }
    },
    {
      "name": "locales",
      "type": "ConsentFieldLocale",
      "mapping": {
        "associationType": "association",
        "cascade": "delete",
        "parentModel": "ConsentField",
        "parentField": "id",
        "childModel": "ConsentFieldLocale",
        "childField": "object"
      }
    },
    {
      "name": "locale",
      "type": "ConsentFieldLocale",
      "readonly": true,
      "editable": false,
      "many": true,
      "expandable": true,
      "multiplicity": "ZeroOrOne",
      "mapping": {
        "associationType": "association",
        "cascade": "delete",
        "parentModel": "ConsentField",
        "parentField": "id",
        "childModel": "ConsentFieldLocale",
        "childField": "object",
        "options": {
          "$filter": "inLanguage eq lang()",
          "$select": "name,description",
          "$first": true
        }
      }
    }
  ],
  "privileges": [
    {
      "mask": 1,
      "type": "global",
      "account": "*"
    },
    {
      "mask": 15,
      "type": "global"
    },
    {
      "mask": 15,
      "type": "global",
      "account": "Administrators"
    }
  ],
  "constraints": [
    {
      "type": "unique",
      "fields": [
        "alternateName"
      ]
    }
  ],
  "seed": [],
  "eventListeners": [
    {
      "type": "./listeners/CachingListener.js"
    },
    {
      "type": "@themost/data/previous-state-listener"
    },
    {
      "type": "./listeners/MultiLingualDataListener.js"
    },
    {
      "type": "./listeners/OnUpdateGroupAlternateName.js"
    }
  ]
}