{
    "$schema": "https://themost-framework.github.io/themost/models/2018/2/schema.json",
    "@id": "https://universis.io/entities/ConsentFieldGroupLocale",
    "name": "ConsentFieldGroupLocale",
    "title": "ConsentFieldGroupLocale",
    "abstract": false,
    "contains": "ConsentField",
    "hidden": true,
    "sealed": false,
    "version": "1.0.0",
    "fields": [
        {
            "@id": "https://themost.io/schemas/id",
            "name": "id",
            "title": "ID",
            "description": "The identifier of the item.",
            "type": "Counter",
            "primary": true,
            "nullable": false
        },
        {
            "@id": "https://themost.io/schemas/object",
            "name": "object",
            "title": "object",
            "description": "The parent item.",
            "type": "ConsentFieldGroup"
        },
        {
            "@id": "http://schema.org/inLanguage",
            "name": "inLanguage",
            "title": "inLanguage",
            "description": "The language of this item.",
            "type": "Text",
            "size": 5
        },
        {
            "@id": "http://schema.org/name",
            "name": "name",
            "description": "The name of the item.",
            "type": "Text",
            "nullable": false
        },
        {
            "@id": "http://schema.org/description",
            "name": "description",
            "title": "description",
            "description": "A description of the item.",
            "type": "Text"
        }
    ],
    "constraints": [
        {
            "type": "unique",
            "fields": [
                "object",
                "inLanguage"
            ]
        }
    ],
    "privileges": [
        {
            "mask": 1,
            "type": "global",
            "account": "*"
        },
        {
            "mask": 15,
            "type": "global"
        },
        {
            "mask": 15,
            "type": "global",
            "account": "Administrators"
        }
    ]
}